python-verilog/examples_py3/jtag/dump.vcd
$date
	Thu Nov 30 21:22:48 2023
$end
$version
	Icarus Verilog
$end
$timescale
	1ps
$end
$scope module tb $end
$var wire 1 ! pwrite $end
$var wire 32 " pwdata [31:0] $end
$var wire 1 # psel $end
$var wire 1 $ penable $end
$var wire 16 % paddr [15:0] $end
$var wire 1 & jtdo $end
$var reg 32 ' Index [31:0] $end
$var reg 1 ( clk $end
$var reg 32 ) corrects [31:0] $end
$var reg 32 * cycles [31:0] $end
$var reg 32 + errors [31:0] $end
$var reg 1 , jtck $end
$var reg 1 - jtdi $end
$var reg 1 . jtms $end
$var reg 32 / marker [31:0] $end
$var reg 256 0 markstr0 [255:0] $end
$var reg 32 1 panics [31:0] $end
$var reg 1 2 por_n $end
$var reg 32 3 prdata [31:0] $end
$var reg 1 4 pready $end
$var reg 1 5 rst_n $end
$var reg 16 6 seqptr [15:0] $end
$var reg 30 7 status [29:0] $end
$var reg 1024 8 testname [1023:0] $end
$var reg 32 9 wrongs [31:0] $end
$scope module dut $end
$var wire 1 ( clk $end
$var wire 1 , jtck $end
$var wire 1 - jtdi $end
$var wire 1 . jtms $end
$var wire 1 2 por_n $end
$var wire 32 : prdata [31:0] $end
$var wire 1 4 pready $end
$var wire 1 # psel $end
$var wire 1 ; pulse $end
$var wire 1 < ram_ready $end
$var wire 1 5 rst_n $end
$var wire 30 = status [29:0] $end
$var wire 1 > status0 $end
$var wire 1 ? status1 $end
$var wire 8 @ version [7:0] $end
$var wire 1 A ram_write_sync $end
$var wire 1 B ram_write $end
$var wire 32 C ram_wr_data [31:0] $end
$var wire 1 D ram_read_sync $end
$var wire 1 E ram_read $end
$var wire 16 F ram_addr [15:0] $end
$var wire 1 $ penable $end
$var wire 1 & jtdo $end
$var wire 32 G internal_status [31:0] $end
$var wire 32 H control [31:0] $end
$var reg 16 I paddr [15:0] $end
$var reg 32 J pwdata [31:0] $end
$var reg 1 ! pwrite $end
$var reg 32 K ram_rd_data [31:0] $end
$var reg 2 L state [1:0] $end
$var reg 1 M was $end
$scope module jtag_tap $end
$var wire 1 , jtck_clock $end
$var wire 1 - jtdi_out $end
$var wire 1 . jtms_out $end
$var wire 1 2 por_n $end
$var wire 32 N ram_rd_data [31:0] $end
$var wire 1 < ram_ready $end
$var wire 32 O status [31:0] $end
$var wire 8 P version [7:0] $end
$var wire 1 Q xir_tck $end
$var wire 1 R xdr_tck $end
$var wire 1 & jtdo_in $end
$var wire 1 S do_incr $end
$var reg 32 T control [31:0] $end
$var reg 3 U incr_addr [2:0] $end
$var reg 8 V ireg [7:0] $end
$var reg 16 W ram_addr [15:0] $end
$var reg 1 E ram_read $end
$var reg 32 X ram_wr_data [31:0] $end
$var reg 1 B ram_write $end
$var reg 32 Y sreg [31:0] $end
$var reg 4 Z tap [3:0] $end
$scope module jtag_neg_module $end
$var wire 1 , jtck_clock $end
$var wire 1 2 por_n $end
$var wire 1 [ sr0 $end
$var wire 4 \ tap [3:0] $end
$var reg 1 & tdo $end
$var reg 1 R xdr_tck $end
$var reg 1 Q xir_tck $end
$upscope $end
$upscope $end
$scope module level_synchronizer_1 $end
$var wire 1 ( clk $end
$var wire 1 E din $end
$var wire 1 5 rst_n $end
$var wire 1 D dout $end
$var reg 1 ] sreg0 $end
$var reg 1 D sreg1 $end
$upscope $end
$scope module level_synchronizer_2 $end
$var wire 1 ( clk $end
$var wire 1 B din $end
$var wire 1 5 rst_n $end
$var wire 1 A dout $end
$var reg 1 ^ sreg0 $end
$var reg 1 A sreg1 $end
$upscope $end
$upscope $end
$upscope $end
$enddefinitions $end
#0
$dumpvars
0^
0]
b0 \
0[
b0 Z
b0 Y
b0 X
b0 W
b10 V
b0 U
b0 T
0S
0R
0Q
b1010111 P
b10000000000000000000000000000101 O
bx N
0M
b0 L
bx K
bx J
bx I
b0 H
b10000000000000000000000000000101 G
b0 F
0E
0D
b0 C
0B
0A
b1010111 @
1?
0>
b101 =
1<
0;
b0 :
b0 9
b11101000110010101110011011101000011000000101110011100110110010101110001 8
b101 7
b0 6
05
04
b0 3
02
b0 1
b0 0
b0 /
0.
0-
0,
b0 +
b0 *
b0 )
0(
b0 '
0&
bx %
0$
0#
bx "
0!
$end
#10000
1(
#13000
b1 *
#20000
0(
#30000
1(
#33000
b10 *
#40000
0(
#50000
1(
#53000
b11 *
#60000
0(
#70000
1(
#73000
b100 *
#80000
0(
#90000
1(
#93000
b101 *
#100000
0(
12
#110000
1(
#113000
b110 *
#120000
0(
#130000
1(
#133000
b111 *
#140000
0(
#150000
1(
#153000
b1000 *
#160000
0(
#170000
1(
#173000
b1001 *
#180000
0(
#190000
1(
#193000
b1010 *
#200000
0(
15
#210000
1(
#213000
b1011 *
#220000
0(
#230000
1(
#233000
b1100 *
#240000
0(
#250000
1(
#253000
b1101 *
#260000
0(
#270000
1(
#273000
b1110 *
#280000
0(
#290000
1(
#293000
b1111 *
#300000
0(
#310000
1(
#313000
b10000 *
#320000
0(
#330000
1(
#333000
b10001 *
#340000
0(
#350000
1(
#353000
b10010 *
#360000
0(
#370000
1(
#373000
b10011 *
#380000
0(
#390000
1(
#393000
b10100 *
#400000
0(
#410000
1(
#413000
b10101 *
#420000
0(
#430000
1(
#433000
b10110 *
#440000
0(
#450000
1(
#453000
b10111 *
#460000
0(
#470000
1(
#473000
b11000 *
#480000
0(
#490000
1(
#493000
b11001 *
#500000
0(
#510000
1(
#513000
b11010 *
#520000
0(
#530000
1(
#533000
b11011 *
#540000
0(
#550000
1(
#553000
b11100 *
#560000
0(
#570000
1(
#573000
b11101 *
#580000
0(
#590000
1(
#593000
b11110 *
#600000
0(
#610000
1(
#613000
b10 6
b1101001011001000110110001100101 0
b11111 *
#620000
0(
#630000
1(
#633000
b100000 *
#640000
0(
#650000
1(
#653000
b100001 *
#660000
0(
#670000
1(
#673000
b100010 *
#680000
0(
#690000
1(
#693000
b100011 *
#700000
0(
#710000
1(
#713000
b100100 *
#720000
0(
#730000
1(
#733000
b100101 *
#740000
0(
#750000
1(
#753000
b100110 *
#760000
0(
#770000
1(
#773000
b100111 *
#780000
0(
#790000
1(
#793000
b101000 *
#800000
0(
#810000
1(
#813000
b101001 *
#820000
0(
#830000
1(
#833000
b11 6
b101010 *
#840000
0(
#850000
1(
#853000
b100 6
b101011 *
#860000
0(
#870000
1(
#873000
b101 6
b101100 *
#880000
0(
#890000
1(
#893000
b110 6
b101101 *
#900000
0(
#910000
1(
#913000
b111 6
b101110 *
#920000
0(
#930000
1(
#933000
b1000 6
b101111 *
#940000
0(
#950000
1(
#953000
b1010 6
b110000 *
#960000
0(
#970000
1(
#973000
b1011 6
b110001 *
#980000
0(
#990000
1(
#993000
b1100 6
b110010 *
#1000000
0(
#1010000
1(
#1013000
b1101 6
b110011 *
#1020000
0(
#1030000
1(
#1033000
b110100 *
#1040000
0(
#1050000
1(
#1053000
b110101 *
#1060000
0(
#1070000
1(
#1073000
b110110 *
#1080000
0(
#1090000
1(
#1093000
b110111 *
#1100000
0(
#1110000
1(
#1113000
b111000 *
#1120000
0(
#1130000
1(
#1133000
b111001 *
#1140000
0(
#1150000
1(
#1153000
b111010 *
#1160000
0(
#1170000
1(
#1173000
b111011 *
#1180000
0(
#1190000
1(
#1193000
b111100 *
#1200000
0(
#1210000
1(
#1213000
b111101 *
#1220000
0(
#1230000
1(
#1233000
b111110 *
#1240000
0(
#1250000
1(
#1253000
b111111 *
#1260000
0(
#1270000
1(
#1273000
b1 Z
b1 \
1,
b1000000 *
#1280000
0(
#1290000
1(
#1293000
b1000001 *
#1300000
0(
#1310000
1(
#1313000
b1000010 *
#1320000
0(
#1330000
1(
#1333000
b1000011 *
#1340000
0(
#1350000
1(
#1353000
b1000100 *
#1360000
0(
#1370000
1(
#1373000
b1000101 *
#1380000
0(
#1390000
1(
#1393000
b1000110 *
#1400000
0(
#1410000
1(
#1413000
b1000111 *
#1420000
0(
#1430000
1(
#1433000
b1001000 *
#1440000
0(
#1450000
1(
#1453000
b1001001 *
#1460000
0(
#1470000
1(
#1473000
b1001010 *
#1480000
0(
#1490000
1(
#1493000
0,
b1001011 *
#1500000
0(
#1510000
1(
#1513000
b1001100 *
#1520000
0(
#1530000
1(
#1533000
b1001101 *
#1540000
0(
#1550000
1(
#1553000
b1001110 *
#1560000
0(
#1570000
1(
#1573000
b1001111 *
#1580000
0(
#1590000
1(
#1593000
b1010000 *
#1600000
0(
#1610000
1(
#1613000
b1010001 *
#1620000
0(
#1630000
1(
#1633000
b1010010 *
#1640000
0(
#1650000
1(
#1653000
b1010011 *
#1660000
0(
#1670000
1(
#1673000
b1010100 *
#1680000
0(
#1690000
1(
#1693000
b1010101 *
#1700000
0(
#1710000
1(
#1713000
1.
b1010110 *
#1720000
0(
#1730000
1(
#1733000
b1010111 *
#1740000
0(
#1750000
1(
#1753000
b1011000 *
#1760000
0(
#1770000
1(
#1773000
b1011001 *
#1780000
0(
#1790000
1(
#1793000
b1011010 *
#1800000
0(
#1810000
1(
#1813000
b1011011 *
#1820000
0(
#1830000
1(
#1833000
b1011100 *
#1840000
0(
#1850000
1(
#1853000
b1011101 *
#1860000
0(
#1870000
1(
#1873000
b1011110 *
#1880000
0(
#1890000
1(
#1893000
b1011111 *
#1900000
0(
#1910000
1(
#1913000
b1100000 *
#1920000
0(
#1930000
1(
#1933000
b10 Z
b10 \
1,
b1100001 *
#1940000
0(
#1950000
1(
#1953000
b1100010 *
#1960000
0(
#1970000
1(
#1973000
b1100011 *
#1980000
0(
#1990000
1(
#1993000
b1100100 *
#2000000
0(
#2010000
1(
#2013000
b1100101 *
#2020000
0(
#2030000
1(
#2033000
b1100110 *
#2040000
0(
#2050000
1(
#2053000
b1100111 *
#2060000
0(
#2070000
1(
#2073000
b1101000 *
#2080000
0(
#2090000
1(
#2093000
b1101001 *
#2100000
0(
#2110000
1(
#2113000
b1101010 *
#2120000
0(
#2130000
1(
#2133000
b1101011 *
#2140000
0(
#2150000
1(
#2153000
0,
b1101100 *
#2160000
0(
#2170000
1(
#2173000
b1101101 *
#2180000
0(
#2190000
1(
#2193000
b1101110 *
#2200000
0(
#2210000
1(
#2213000
b1101111 *
#2220000
0(
#2230000
1(
#2233000
b1110000 *
#2240000
0(
#2250000
1(
#2253000
b1110001 *
#2260000
0(
#2270000
1(
#2273000
b1110010 *
#2280000
0(
#2290000
1(
#2293000
b1110011 *
#2300000
0(
#2310000
1(
#2313000
b1110100 *
#2320000
0(
#2330000
1(
#2333000
b1110101 *
#2340000
0(
#2350000
1(
#2353000
b1110110 *
#2360000
0(
#2370000
1(
#2373000
b1110111 *
#2380000
0(
#2390000
1(
#2393000
b1111000 *
#2400000
0(
#2410000
1(
#2413000
b1111001 *
#2420000
0(
#2430000
1(
#2433000
b1111010 *
#2440000
0(
#2450000
1(
#2453000
b1111011 *
#2460000
0(
#2470000
1(
#2473000
b1111100 *
#2480000
0(
#2490000
1(
#2493000
b1111101 *
#2500000
0(
#2510000
1(
#2513000
b1111110 *
#2520000
0(
#2530000
1(
#2533000
b1111111 *
#2540000
0(
#2550000
1(
#2553000
b10000000 *
#2560000
0(
#2570000
1(
#2573000
b10000001 *
#2580000
0(
#2590000
1(
#2593000
b11 Z
b11 \
1,
b10000010 *
#2600000
0(
#2610000
1(
#2613000
b10000011 *
#2620000
0(
#2630000
1(
#2633000
b10000100 *
#2640000
0(
#2650000
1(
#2653000
b10000101 *
#2660000
0(
#2670000
1(
#2673000
b10000110 *
#2680000
0(
#2690000
1(
#2693000
b10000111 *
#2700000
0(
#2710000
1(
#2713000
b10001000 *
#2720000
0(
#2730000
1(
#2733000
b10001001 *
#2740000
0(
#2750000
1(
#2753000
b10001010 *
#2760000
0(
#2770000
1(
#2773000
b10001011 *
#2780000
0(
#2790000
1(
#2793000
b10001100 *
#2800000
0(
#2810000
1(
#2813000
0,
b10001101 *
#2820000
0(
#2830000
1(
#2833000
b10001110 *
#2840000
0(
#2850000
1(
#2853000
b10001111 *
#2860000
0(
#2870000
1(
#2873000
b10010000 *
#2880000
0(
#2890000
1(
#2893000
b10010001 *
#2900000
0(
#2910000
1(
#2913000
b10010010 *
#2920000
0(
#2930000
1(
#2933000
b10010011 *
#2940000
0(
#2950000
1(
#2953000
b10010100 *
#2960000
0(
#2970000
1(
#2973000
b10010101 *
#2980000
0(
#2990000
1(
#2993000
b10010110 *
#3000000
0(
#3010000
1(
#3013000
b10010111 *
#3020000
0(
#3030000
1(
#3033000
0.
b10011000 *
#3040000
0(
#3050000
1(
#3053000
b10011001 *
#3060000
0(
#3070000
1(
#3073000
b10011010 *
#3080000
0(
#3090000
1(
#3093000
b10011011 *
#3100000
0(
#3110000
1(
#3113000
b10011100 *
#3120000
0(
#3130000
1(
#3133000
b10011101 *
#3140000
0(
#3150000
1(
#3153000
b10011110 *
#3160000
0(
#3170000
1(
#3173000
b10011111 *
#3180000
0(
#3190000
1(
#3193000
b10100000 *
#3200000
0(
#3210000
1(
#3213000
b10100001 *
#3220000
0(
#3230000
1(
#3233000
b10100010 *
#3240000
0(
#3250000
1(
#3253000
b1010 Z
b1010 \
1,
b10100011 *
#3260000
0(
#3270000
1(
#3273000
b10100100 *
#3280000
0(
#3290000
1(
#3293000
b10100101 *
#3300000
0(
#3310000
1(
#3313000
b10100110 *
#3320000
0(
#3330000
1(
#3333000
b10100111 *
#3340000
0(
#3350000
1(
#3353000
b10101000 *
#3360000
0(
#3370000
1(
#3373000
b10101001 *
#3380000
0(
#3390000
1(
#3393000
b10101010 *
#3400000
0(
#3410000
1(
#3413000
b10101011 *
#3420000
0(
#3430000
1(
#3433000
b10101100 *
#3440000
0(
#3450000
1(
#3453000
b10101101 *
#3460000
0(
#3470000
1(
#3473000
0,
b10101110 *
#3480000
0(
#3490000
1(
#3493000
b10101111 *
#3500000
0(
#3510000
1(
#3513000
b10110000 *
#3520000
0(
#3530000
1(
#3533000
b10110001 *
#3540000
0(
#3550000
1(
#3553000
b10110010 *
#3560000
0(
#3570000
1(
#3573000
b10110011 *
#3580000
0(
#3590000
1(
#3593000
b10110100 *
#3600000
0(
#3610000
1(
#3613000
b10110101 *
#3620000
0(
#3630000
1(
#3633000
b10110110 *
#3640000
0(
#3650000
1(
#3653000
b10110111 *
#3660000
0(
#3670000
1(
#3673000
b10111000 *
#3680000
0(
#3690000
1(
#3693000
b10111001 *
#3700000
0(
#3710000
1(
#3713000
b10111010 *
#3720000
0(
#3730000
1(
#3733000
b10111011 *
#3740000
0(
#3750000
1(
#3753000
b10111100 *
#3760000
0(
#3770000
1(
#3773000
b10111101 *
#3780000
0(
#3790000
1(
#3793000
b10111110 *
#3800000
0(
#3810000
1(
#3813000
b10111111 *
#3820000
0(
#3830000
1(
#3833000
b11000000 *
#3840000
0(
#3850000
1(
#3853000
b11000001 *
#3860000
0(
#3870000
1(
#3873000
b11000010 *
#3880000
0(
#3890000
1(
#3893000
b11000011 *
#3900000
0(
#3910000
1(
#3913000
b10 Y
b1011 Z
b1011 \
1,
b11000100 *
#3920000
0(
#3930000
1(
#3933000
b11000101 *
#3940000
0(
#3950000
1(
#3953000
b11000110 *
#3960000
0(
#3970000
1(
#3973000
b11000111 *
#3980000
0(
#3990000
1(
#3993000
b11001000 *
#4000000
0(
#4010000
1(
#4013000
b11001001 *
#4020000
0(
#4030000
1(
#4033000
b11001010 *
#4040000
0(
#4050000
1(
#4053000
b11001011 *
#4060000
0(
#4070000
1(
#4073000
b11001100 *
#4080000
0(
#4090000
1(
#4093000
b11001101 *
#4100000
0(
#4110000
1(
#4113000
b11001110 *
#4120000
0(
#4130000
1(
#4133000
0,
b11001111 *
#4140000
0(
#4150000
1(
#4153000
b11010000 *
#4160000
0(
#4170000
1(
#4173000
b11010001 *
#4180000
0(
#4190000
1(
#4193000
b11010010 *
#4200000
0(
#4210000
1(
#4213000
b11010011 *
#4220000
0(
#4230000
1(
#4233000
b11010100 *
#4240000
0(
#4250000
1(
#4253000
b11010101 *
#4260000
0(
#4270000
1(
#4273000
b11010110 *
#4280000
0(
#4290000
1(
#4293000
b11010111 *
#4300000
0(
#4310000
1(
#4313000
b11011000 *
#4320000
0(
#4330000
1(
#4333000
b11011001 *
#4340000
0(
#4350000
1(
#4353000
b11011010 *
#4360000
0(
#4370000
1(
#4373000
b11011011 *
#4380000
0(
#4390000
1(
#4393000
b11011100 *
#4400000
0(
#4410000
1(
#4413000
b11011101 *
#4420000
0(
#4430000
1(
#4433000
b11011110 *
#4440000
0(
#4450000
1(
#4453000
b11011111 *
#4460000
0(
#4470000
1(
#4473000
b11100000 *
#4480000
0(
#4490000
1(
#4493000
b11100001 *
#4500000
0(
#4510000
1(
#4513000
b11100010 *
#4520000
0(
#4530000
1(
#4533000
b11100011 *
#4540000
0(
#4550000
1(
#4553000
b11100100 *
#4560000
0(
#4570000
1(
#4573000
1[
b1 Y
1,
b11100101 *
#4580000
0(
#4590000
1(
#4593000
b11100110 *
#4600000
0(
#4610000
1(
#4613000
b11100111 *
#4620000
0(
#4630000
1(
#4633000
b11101000 *
#4640000
0(
#4650000
1(
#4653000
b11101001 *
#4660000
0(
#4670000
1(
#4673000
b11101010 *
#4680000
0(
#4690000
1(
#4693000
b11101011 *
#4700000
0(
#4710000
1(
#4713000
b11101100 *
#4720000
0(
#4730000
1(
#4733000
b11101101 *
#4740000
0(
#4750000
1(
#4753000
b11101110 *
#4760000
0(
#4770000
1(
#4773000
b11101111 *
#4780000
0(
#4790000
1(
#4793000
1&
0,
b11110000 *
#4800000
0(
#4810000
1(
#4813000
b11110001 *
#4820000
0(
#4830000
1(
#4833000
b11110010 *
#4840000
0(
#4850000
1(
#4853000
b11110011 *
#4860000
0(
#4870000
1(
#4873000
b11110100 *
#4880000
0(
#4890000
1(
#4893000
b11110101 *
#4900000
0(
#4910000
1(
#4913000
b11110110 *
#4920000
0(
#4930000
1(
#4933000
b11110111 *
#4940000
0(
#4950000
1(
#4953000
b11111000 *
#4960000
0(
#4970000
1(
#4973000
b11111001 *
#4980000
0(
#4990000
1(
#4993000
b11111010 *
#5000000
0(
#5010000
1(
#5013000
b11111011 *
#5020000
0(
#5030000
1(
#5033000
b1110 6
b11111100 *
#5040000
0(
#5050000
1(
#5053000
b1111 6
b11111101 *
#5060000
0(
#5070000
1(
#5073000
b10000 6
b11111110 *
#5080000
0(
#5090000
1(
#5093000
b11111111 *
#5100000
0(
#5110000
1(
#5113000
b100000000 *
#5120000
0(
#5130000
1(
#5133000
b100000001 *
#5140000
0(
#5150000
1(
#5153000
b100000010 *
#5160000
0(
#5170000
1(
#5173000
b100000011 *
#5180000
0(
#5190000
1(
#5193000
b100000100 *
#5200000
0(
#5210000
1(
#5213000
b100000101 *
#5220000
0(
#5230000
1(
#5233000
0[
b0 Y
1,
b100000110 *
#5240000
0(
#5250000
1(
#5253000
b100000111 *
#5260000
0(
#5270000
1(
#5273000
b100001000 *
#5280000
0(
#5290000
1(
#5293000
b100001001 *
#5300000
0(
#5310000
1(
#5313000
b100001010 *
#5320000
0(
#5330000
1(
#5333000
b100001011 *
#5340000
0(
#5350000
1(
#5353000
b100001100 *
#5360000
0(
#5370000
1(
#5373000
b100001101 *
#5380000
0(
#5390000
1(
#5393000
b100001110 *
#5400000
0(
#5410000
1(
#5413000
b100001111 *
#5420000
0(
#5430000
1(
#5433000
b100010000 *
#5440000
0(
#5450000
1(
#5453000
0&
0,
b100010001 *
#5460000
0(
#5470000
1(
#5473000
b100010010 *
#5480000
0(
#5490000
1(
#5493000
b100010011 *
#5500000
0(
#5510000
1(
#5513000
b100010100 *
#5520000
0(
#5530000
1(
#5533000
b100010101 *
#5540000
0(
#5550000
1(
#5553000
b100010110 *
#5560000
0(
#5570000
1(
#5573000
b100010111 *
#5580000
0(
#5590000
1(
#5593000
b100011000 *
#5600000
0(
#5610000
1(
#5613000
b100011001 *
#5620000
0(
#5630000
1(
#5633000
b100011010 *
#5640000
0(
#5650000
1(
#5653000
b100011011 *
#5660000
0(
#5670000
1(
#5673000
1-
b100011100 *
#5680000
0(
#5690000
1(
#5693000
b100011101 *
#5700000
0(
#5710000
1(
#5713000
b100011110 *
#5720000
0(
#5730000
1(
#5733000
b100011111 *
#5740000
0(
#5750000
1(
#5753000
b100100000 *
#5760000
0(
#5770000
1(
#5773000
b100100001 *
#5780000
0(
#5790000
1(
#5793000
b100100010 *
#5800000
0(
#5810000
1(
#5813000
b100100011 *
#5820000
0(
#5830000
1(
#5833000
b100100100 *
#5840000
0(
#5850000
1(
#5853000
b100100101 *
#5860000
0(
#5870000
1(
#5873000
b100100110 *
#5880000
0(
#5890000
1(
#5893000
b10000000000000000000000000000000 Y
1,
b100100111 *
#5900000
0(
#5910000
1(
#5913000
b100101000 *
#5920000
0(
#5930000
1(
#5933000
b100101001 *
#5940000
0(
#5950000
1(
#5953000
b100101010 *
#5960000
0(
#5970000
1(
#5973000
b100101011 *
#5980000
0(
#5990000
1(
#5993000
b100101100 *
#6000000
0(
#6010000
1(
#6013000
b100101101 *
#6020000
0(
#6030000
1(
#6033000
b100101110 *
#6040000
0(
#6050000
1(
#6053000
b100101111 *
#6060000
0(
#6070000
1(
#6073000
b100110000 *
#6080000
0(
#6090000
1(
#6093000
b100110001 *
#6100000
0(
#6110000
1(
#6113000
0,
b100110010 *
#6120000
0(
#6130000
1(
#6133000
b100110011 *
#6140000
0(
#6150000
1(
#6153000
b100110100 *
#6160000
0(
#6170000
1(
#6173000
b100110101 *
#6180000
0(
#6190000
1(
#6193000
b100110110 *
#6200000
0(
#6210000
1(
#6213000
b100110111 *
#6220000
0(
#6230000
1(
#6233000
b100111000 *
#6240000
0(
#6250000
1(
#6253000
b100111001 *
#6260000
0(
#6270000
1(
#6273000
b100111010 *
#6280000
0(
#6290000
1(
#6293000
b100111011 *
#6300000
0(
#6310000
1(
#6313000
b100111100 *
#6320000
0(
#6330000
1(
#6333000
0-
b100111101 *
#6340000
0(
#6350000
1(
#6353000
b100111110 *
#6360000
0(
#6370000
1(
#6373000
b100111111 *
#6380000
0(
#6390000
1(
#6393000
b101000000 *
#6400000
0(
#6410000
1(
#6413000
b101000001 *
#6420000
0(
#6430000
1(
#6433000
b101000010 *
#6440000
0(
#6450000
1(
#6453000
b101000011 *
#6460000
0(
#6470000
1(
#6473000
b101000100 *
#6480000
0(
#6490000
1(
#6493000
b101000101 *
#6500000
0(
#6510000
1(
#6513000
b101000110 *
#6520000
0(
#6530000
1(
#6533000
b101000111 *
#6540000
0(
#6550000
1(
#6553000
b1000000000000000000000000000000 Y
1,
b101001000 *
#6560000
0(
#6570000
1(
#6573000
b101001001 *
#6580000
0(
#6590000
1(
#6593000
b101001010 *
#6600000
0(
#6610000
1(
#6613000
b101001011 *
#6620000
0(
#6630000
1(
#6633000
b101001100 *
#6640000
0(
#6650000
1(
#6653000
b101001101 *
#6660000
0(
#6670000
1(
#6673000
b101001110 *
#6680000
0(
#6690000
1(
#6693000
b101001111 *
#6700000
0(
#6710000
1(
#6713000
b101010000 *
#6720000
0(
#6730000
1(
#6733000
b101010001 *
#6740000
0(
#6750000
1(
#6753000
b101010010 *
#6760000
0(
#6770000
1(
#6773000
0,
b101010011 *
#6780000
0(
#6790000
1(
#6793000
b101010100 *
#6800000
0(
#6810000
1(
#6813000
b101010101 *
#6820000
0(
#6830000
1(
#6833000
b101010110 *
#6840000
0(
#6850000
1(
#6853000
b101010111 *
#6860000
0(
#6870000
1(
#6873000
b101011000 *
#6880000
0(
#6890000
1(
#6893000
b101011001 *
#6900000
0(
#6910000
1(
#6913000
b101011010 *
#6920000
0(
#6930000
1(
#6933000
b101011011 *
#6940000
0(
#6950000
1(
#6953000
b101011100 *
#6960000
0(
#6970000
1(
#6973000
b101011101 *
#6980000
0(
#6990000
1(
#6993000
b101011110 *
#7000000
0(
#7010000
1(
#7013000
b101011111 *
#7020000
0(
#7030000
1(
#7033000
b101100000 *
#7040000
0(
#7050000
1(
#7053000
b101100001 *
#7060000
0(
#7070000
1(
#7073000
b101100010 *
#7080000
0(
#7090000
1(
#7093000
b101100011 *
#7100000
0(
#7110000
1(
#7113000
b101100100 *
#7120000
0(
#7130000
1(
#7133000
b101100101 *
#7140000
0(
#7150000
1(
#7153000
b101100110 *
#7160000
0(
#7170000
1(
#7173000
b101100111 *
#7180000
0(
#7190000
1(
#7193000
b101101000 *
#7200000
0(
#7210000
1(
#7213000
b100000000000000000000000000000 Y
1,
b101101001 *
#7220000
0(
#7230000
1(
#7233000
b101101010 *
#7240000
0(
#7250000
1(
#7253000
b101101011 *
#7260000
0(
#7270000
1(
#7273000
b101101100 *
#7280000
0(
#7290000
1(
#7293000
b101101101 *
#7300000
0(
#7310000
1(
#7313000
b101101110 *
#7320000
0(
#7330000
1(
#7333000
b101101111 *
#7340000
0(
#7350000
1(
#7353000
b101110000 *
#7360000
0(
#7370000
1(
#7373000
b101110001 *
#7380000
0(
#7390000
1(
#7393000
b101110010 *
#7400000
0(
#7410000
1(
#7413000
b101110011 *
#7420000
0(
#7430000
1(
#7433000
0,
b101110100 *
#7440000
0(
#7450000
1(
#7453000
b101110101 *
#7460000
0(
#7470000
1(
#7473000
b101110110 *
#7480000
0(
#7490000
1(
#7493000
b101110111 *
#7500000
0(
#7510000
1(
#7513000
b101111000 *
#7520000
0(
#7530000
1(
#7533000
b101111001 *
#7540000
0(
#7550000
1(
#7553000
b101111010 *
#7560000
0(
#7570000
1(
#7573000
b101111011 *
#7580000
0(
#7590000
1(
#7593000
b101111100 *
#7600000
0(
#7610000
1(
#7613000
b101111101 *
#7620000
0(
#7630000
1(
#7633000
b101111110 *
#7640000
0(
#7650000
1(
#7653000
b101111111 *
#7660000
0(
#7670000
1(
#7673000
b110000000 *
#7680000
0(
#7690000
1(
#7693000
b110000001 *
#7700000
0(
#7710000
1(
#7713000
b110000010 *
#7720000
0(
#7730000
1(
#7733000
b110000011 *
#7740000
0(
#7750000
1(
#7753000
b110000100 *
#7760000
0(
#7770000
1(
#7773000
b110000101 *
#7780000
0(
#7790000
1(
#7793000
b110000110 *
#7800000
0(
#7810000
1(
#7813000
b110000111 *
#7820000
0(
#7830000
1(
#7833000
b110001000 *
#7840000
0(
#7850000
1(
#7853000
b110001001 *
#7860000
0(
#7870000
1(
#7873000
b10000000000000000000000000000 Y
1,
b110001010 *
#7880000
0(
#7890000
1(
#7893000
b110001011 *
#7900000
0(
#7910000
1(
#7913000
b110001100 *
#7920000
0(
#7930000
1(
#7933000
b110001101 *
#7940000
0(
#7950000
1(
#7953000
b110001110 *
#7960000
0(
#7970000
1(
#7973000
b110001111 *
#7980000
0(
#7990000
1(
#7993000
b110010000 *
#8000000
0(
#8010000
1(
#8013000
b110010001 *
#8020000
0(
#8030000
1(
#8033000
b110010010 *
#8040000
0(
#8050000
1(
#8053000
b110010011 *
#8060000
0(
#8070000
1(
#8073000
b110010100 *
#8080000
0(
#8090000
1(
#8093000
0,
b110010101 *
#8100000
0(
#8110000
1(
#8113000
b110010110 *
#8120000
0(
#8130000
1(
#8133000
b110010111 *
#8140000
0(
#8150000
1(
#8153000
b110011000 *
#8160000
0(
#8170000
1(
#8173000
b110011001 *
#8180000
0(
#8190000
1(
#8193000
b110011010 *
#8200000
0(
#8210000
1(
#8213000
b110011011 *
#8220000
0(
#8230000
1(
#8233000
b110011100 *
#8240000
0(
#8250000
1(
#8253000
b110011101 *
#8260000
0(
#8270000
1(
#8273000
b110011110 *
#8280000
0(
#8290000
1(
#8293000
b110011111 *
#8300000
0(
#8310000
1(
#8313000
1-
b110100000 *
#8320000
0(
#8330000
1(
#8333000
b110100001 *
#8340000
0(
#8350000
1(
#8353000
b110100010 *
#8360000
0(
#8370000
1(
#8373000
b110100011 *
#8380000
0(
#8390000
1(
#8393000
b110100100 *
#8400000
0(
#8410000
1(
#8413000
b110100101 *
#8420000
0(
#8430000
1(
#8433000
b110100110 *
#8440000
0(
#8450000
1(
#8453000
b110100111 *
#8460000
0(
#8470000
1(
#8473000
b110101000 *
#8480000
0(
#8490000
1(
#8493000
b110101001 *
#8500000
0(
#8510000
1(
#8513000
b110101010 *
#8520000
0(
#8530000
1(
#8533000
b10001000000000000000000000000000 Y
1,
b110101011 *
#8540000
0(
#8550000
1(
#8553000
b110101100 *
#8560000
0(
#8570000
1(
#8573000
b110101101 *
#8580000
0(
#8590000
1(
#8593000
b110101110 *
#8600000
0(
#8610000
1(
#8613000
b110101111 *
#8620000
0(
#8630000
1(
#8633000
b110110000 *
#8640000
0(
#8650000
1(
#8653000
b110110001 *
#8660000
0(
#8670000
1(
#8673000
b110110010 *
#8680000
0(
#8690000
1(
#8693000
b110110011 *
#8700000
0(
#8710000
1(
#8713000
b110110100 *
#8720000
0(
#8730000
1(
#8733000
b110110101 *
#8740000
0(
#8750000
1(
#8753000
0,
b110110110 *
#8760000
0(
#8770000
1(
#8773000
b110110111 *
#8780000
0(
#8790000
1(
#8793000
b110111000 *
#8800000
0(
#8810000
1(
#8813000
b110111001 *
#8820000
0(
#8830000
1(
#8833000
b110111010 *
#8840000
0(
#8850000
1(
#8853000
b110111011 *
#8860000
0(
#8870000
1(
#8873000
b110111100 *
#8880000
0(
#8890000
1(
#8893000
b110111101 *
#8900000
0(
#8910000
1(
#8913000
b110111110 *
#8920000
0(
#8930000
1(
#8933000
b110111111 *
#8940000
0(
#8950000
1(
#8953000
b111000000 *
#8960000
0(
#8970000
1(
#8973000
0-
1.
b111000001 *
#8980000
0(
#8990000
1(
#8993000
b111000010 *
#9000000
0(
#9010000
1(
#9013000
b111000011 *
#9020000
0(
#9030000
1(
#9033000
b111000100 *
#9040000
0(
#9050000
1(
#9053000
b111000101 *
#9060000
0(
#9070000
1(
#9073000
b111000110 *
#9080000
0(
#9090000
1(
