vcd_python_c/example.vcd
$date
	Thu Feb  1 14:27:40 2018
$end
$version
	Icarus Verilog
$end
$timescale
	1ns
$end
$scope module tb $end
$var wire 1 ! arlock $end
$var wire 1 " arready $end
$var wire 1 # arvalid0 $end
$var wire 1 $ arvalid1 $end
$var wire 4 % awcache [3:0] $end
$var wire 1 & awlock $end
$var wire 3 ' awprot [2:0] $end
$var wire 1 ( awready_ $end
$var wire 1 ) awvalid_ $end
$var wire 1 * awvalid_0 $end
$var wire 1 + awvalid_1 $end
$var wire 4 , bid [3:0] $end
$var wire 1 - bready $end
$var wire 2 . bresp [1:0] $end
$var wire 1 / bvalid $end
$var wire 1 0 dbg0 $end
$var wire 1 1 readx0 $end
$var wire 1 2 readx1 $end
$var wire 1 3 rvalid $end
$var wire 1 4 wready $end
$var wire 1 5 wvalid0 $end
$var wire 1 6 wvalid1 $end
$var wire 1 7 wvalid $end
$var wire 16 8 wstrb [15:0] $end
$var wire 1 9 wready1 $end
$var wire 1 : wready0 $end
$var wire 1 ; wlast $end
$var wire 128 < wdata [127:0] $end
$var wire 57 = _entry [56:0] $end
$var wire 1 > 1_full $end
$var wire 1 ? 1_empty $end
$var wire 1 @ 0_full $end
$var wire 1 A 0_empty $end
$var wire 16 B s_local_wstrb_1 [15:0] $end
$var wire 16 C s_local_wstrb_0 [15:0] $end
$var wire 128 D s_local_wr_data_1 [127:0] $end
$var wire 128 E s_local_wr_data_0 [127:0] $end
$var wire 32 F s_local_wr_addr_1 [31:0] $end
$var wire 32 G s_local_wr_addr_0 [31:0] $end
$var wire 1 H s_local_wr_1 $end
$var wire 1 I s_local_wr_0 $end
$var wire 32 J s_local_rd_addr_1 [31:0] $end
$var wire 32 K s_local_rd_addr_0 [31:0] $end
$var wire 1 L s_local_rd_1 $end
$var wire 1 M s_local_rd_0 $end
$var wire 1 N rvalid1 $end
$var wire 1 O rvalid0 $end
$var wire 2 P rresp1 [1:0] $end
$var wire 2 Q rresp0 [1:0] $end
$var wire 2 R rresp [1:0] $end
$var wire 1 S rready1 $end
$var wire 1 T rready0 $end
$var wire 1 U rready $end
$var wire 1 V rlast1 $end
$var wire 1 W rlast0 $end
$var wire 1 X rlast $end
$var wire 4 Y rid1 [3:0] $end
$var wire 4 Z rid0 [3:0] $end
$var wire 4 [ rid [3:0] $end
$var wire 128 \ rdata1 [127:0] $end
$var wire 128 ] rdata0 [127:0] $end
$var wire 128 ^ rdata [127:0] $end
$var wire 1 _ pslverr $end
$var wire 1 ` pready $end
$var wire 32 a prdata [31:0] $end
$var wire 57 b master_entry [56:0] $end
$var wire 16 c m_local_wstrb [15:0] $end
$var wire 128 d m_local_wr_data [127:0] $end
$var wire 32 e m_local_wr_addr [31:0] $end
$var wire 1 f m_local_wr $end
$var wire 32 g m_local_rd_addr [31:0] $end
$var wire 1 h m_local_rd $end
$var wire 1 i local_wr_last $end
$var wire 1 j local_rd_last $end
$var wire 1 k fifo_empty $end
$var wire 1 l ffull $end
$var wire 1 m cmd_wr_ready $end
$var wire 1 n cmd_wr_empty $end
$var wire 1 o cmd_rd_ready $end
$var wire 1 p cmd_rd_empty $end
$var wire 1 q bvalid1 $end
$var wire 1 r bvalid0 $end
$var wire 2 s brresp1 [1:0] $end
$var wire 2 t brresp0 [1:0] $end
$var wire 1 u brlast1 $end
$var wire 1 v brlast0 $end
$var wire 4 w brid1 [3:0] $end
$var wire 4 x brid0 [3:0] $end
$var wire 2 y bresp1 [1:0] $end
$var wire 2 z bresp0 [1:0] $end
$var wire 128 { brdata1 [127:0] $end
$var wire 128 | brdata0 [127:0] $end
$var wire 4 } bid1 [3:0] $end
$var wire 4 ~ bid0 [3:0] $end
$var wire 1 !" awvalid $end
$var wire 3 "" awsize_ [2:0] $end
$var wire 3 #" awsize [2:0] $end
$var wire 1 $" awready_1 $end
$var wire 1 %" awready_0 $end
$var wire 1 &" awready $end
$var wire 3 '" awprot_ [2:0] $end
$var wire 1 (" awlock_ $end
$var wire 8 )" awlen_ [7:0] $end
$var wire 8 *" awlen [7:0] $end
$var wire 4 +" awid_ [3:0] $end
$var wire 4 ," awid [3:0] $end
$var wire 4 -" awcache_ [3:0] $end
$var wire 2 ." awburst_ [1:0] $end
$var wire 2 /" awburst [1:0] $end
$var wire 32 0" awaddr_ [31:0] $end
$var wire 32 1" awaddr [31:0] $end
$var wire 1 2" arvalid $end
$var wire 3 3" arsize [2:0] $end
$var wire 1 4" arready1 $end
$var wire 1 5" arready0 $end
$var wire 3 6" arprot [2:0] $end
$var wire 8 7" arlen [7:0] $end
$var wire 4 8" arid [3:0] $end
$var wire 4 9" arcache [3:0] $end
$var wire 2 :" arburst [1:0] $end
$var wire 32 ;" araddr [31:0] $end
$var reg 1 <" clk $end
$var reg 32 =" corrects [31:0] $end
$var reg 32 >" cycles [31:0] $end
$var reg 20 ?" cmd_bytes [19:0] $end
$var reg 32 @" cmd_lcl_addr [31:0] $end
$var reg 1 A" cmd_lcl_addr_incr $end
$var reg 3 B" cmd_lcl_size [2:0] $end
$var reg 1 C" cmd_rd $end
$var reg 4 D" cmd_rd_qos [3:0] $end
$var reg 32 E" cmd_rmt_addr [31:0] $end
$var reg 1 F" cmd_rmt_addr_incr $end
$var reg 3 G" cmd_rmt_size [2:0] $end
$var reg 1 H" cmd_wr $end
$var reg 4 I" cmd_wr_qos [3:0] $end
$var reg 32 J" errors [31:0] $end
$var reg 1 K" local_rd_error $end
$var reg 1 L" m_local_rd_addr_ok $end
$var reg 128 M" m_local_rd_data [127:0] $end
$var reg 1 N" m_local_rd_data_ok $end
$var reg 1 O" m_local_wr_ok $end
$var reg 32 P" marker [31:0] $end
$var reg 16 Q" paddr [15:0] $end
$var reg 1 R" penable $end
$var reg 1 S" psel $end
$var reg 32 T" pwdata [31:0] $end
$var reg 1 U" pwrite $end
$var reg 1 V" rst_n $end
$var reg 1 W" s_local_rd_addr_ok_0 $end
$var reg 1 X" s_local_rd_addr_ok_1 $end
$var reg 128 Y" s_local_rd_data_0 [127:0] $end
$var reg 128 Z" s_local_rd_data_1 [127:0] $end
$var reg 1 [" s_local_rd_data_ok_0 $end
$var reg 1 \" s_local_rd_data_ok_1 $end
$var reg 1 ]" s_local_wr_ok_0 $end
$var reg 1 ^" s_local_wr_ok_1 $end
$var reg 1 _" softreset $end
$var reg 1 `" turn0 $end
$var reg 1 a" turn1 $end
$var reg 32 b" wrongs [31:0] $end
$upscope $end
$scope module tb $end
$scope module slv0 $end
$var wire 32 c" araddr [31:0] $end
$var wire 2 d" arburst [1:0] $end
$var wire 4 e" arcache [3:0] $end
$var wire 4 f" arid [3:0] $end
$var wire 8 g" arlen [7:0] $end
$var wire 1 ! arlock $end
$var wire 3 h" arprot [2:0] $end
$var wire 3 i" arsize [2:0] $end
$var wire 1 # arvalid $end
$var wire 32 j" awaddr [31:0] $end
$var wire 2 k" awburst [1:0] $end
$var wire 4 l" awcache [3:0] $end
$var wire 4 m" awid [3:0] $end
$var wire 8 n" awlen [7:0] $end
$var wire 1 (" awlock $end
$var wire 3 o" awprot [2:0] $end
$var wire 3 p" awsize [2:0] $end
$var wire 1 * awvalid $end
$var wire 1 - bready $end
$var wire 1 <" clk $end
$var wire 1 W" local_rd_addr_ok $end
$var wire 128 q" local_rd_data [127:0] $end
$var wire 1 [" local_rd_data_ok $end
$var wire 1 K" local_rd_error $end
$var wire 1 ]" local_wr_ok $end
$var wire 1 T rready $end
$var wire 1 V" rst_n $end
$var wire 128 r" wdata [127:0] $end
$var wire 1 ; wlast $end
$var wire 16 s" wstrb [15:0] $end
$var wire 1 5 wvalid $end
$var wire 1 : wready $end
$var wire 1 O rvalid $end
$var wire 2 t" rresp [1:0] $end
$var wire 1 W rlast $end
$var wire 4 u" rid [3:0] $end
$var wire 128 v" rdata [127:0] $end
$var wire 16 w" local_wstrb [15:0] $end
$var wire 128 x" local_wr_data [127:0] $end
$var wire 32 y" local_wr_addr [31:0] $end
$var wire 1 I local_wr $end
$var wire 32 z" local_rd_addr [31:0] $end
$var wire 1 M local_rd $end
$var wire 1 r bvalid $end
$var wire 2 {" bresp [1:0] $end
$var wire 4 |" bid [3:0] $end
$var wire 1 %" awready $end
$var wire 1 5" arready $end
$upscope $end
$upscope $end
$scope module tb $end
$scope module slv1 $end
$var wire 32 }" araddr [31:0] $end
$var wire 2 ~" arburst [1:0] $end
$var wire 4 !# arcache [3:0] $end
$var wire 4 "# arid [3:0] $end
$var wire 8 ## arlen [7:0] $end
$var wire 1 ! arlock $end
$var wire 3 $# arprot [2:0] $end
$var wire 3 %# arsize [2:0] $end
$var wire 1 $ arvalid $end
$var wire 32 &# awaddr [31:0] $end
$var wire 2 '# awburst [1:0] $end
$var wire 4 (# awcache [3:0] $end
$var wire 4 )# awid [3:0] $end
$var wire 8 *# awlen [7:0] $end
$var wire 1 (" awlock $end
$var wire 3 +# awprot [2:0] $end
$var wire 3 ,# awsize [2:0] $end
$var wire 1 + awvalid $end
$var wire 1 - bready $end
$var wire 1 <" clk $end
$var wire 1 X" local_rd_addr_ok $end
$var wire 128 -# local_rd_data [127:0] $end
$var wire 1 \" local_rd_data_ok $end
$var wire 1 K" local_rd_error $end
$var wire 1 ^" local_wr_ok $end
$var wire 1 S rready $end
$var wire 1 V" rst_n $end
$var wire 128 .# wdata [127:0] $end
$var wire 1 ; wlast $end
$var wire 16 /# wstrb [15:0] $end
$var wire 1 6 wvalid $end
$var wire 1 9 wready $end
$var wire 1 N rvalid $end
$var wire 2 0# rresp [1:0] $end
$var wire 1 V rlast $end
$var wire 4 1# rid [3:0] $end
$var wire 128 2# rdata [127:0] $end
$var wire 16 3# local_wstrb [15:0] $end
$var wire 128 4# local_wr_data [127:0] $end
$var wire 32 5# local_wr_addr [31:0] $end
$var wire 1 H local_wr $end
$var wire 32 6# local_rd_addr [31:0] $end
$var wire 1 L local_rd $end
$var wire 1 q bvalid $end
$var wire 2 7# bresp [1:0] $end
$var wire 4 8# bid [3:0] $end
$var wire 1 $" awready $end
$var wire 1 4" arready $end
$upscope $end
$upscope $end
$enddefinitions $end
#0
$dumpvars
bx 8#
bx 7#
bx 6#
bx 5#
bx 4#
bx 3#
b0 2#
b0 1#
b0 0#
bx /#
bx .#
b0 -#
bx ,#
bx +#
bx *#
bx )#
bx (#
bx '#
bx &#
bx %#
b0 $#
bx ##
bx "#
b0 !#
bx ~"
bx }"
bx |"
bx {"
bx z"
bx y"
bx x"
bx w"
b0 v"
b0 u"
b0 t"
bx s"
bx r"
b0 q"
bx p"
bx o"
bx n"
bx m"
bx l"
bx k"
bx j"
bx i"
b0 h"
bx g"
bx f"
b0 e"
bx d"
bx c"
b0 b"
xa"
x`"
0_"
0^"
0]"
0\"
0["
b0 Z"
b0 Y"
0X"
0W"
0V"
0U"
b0 T"
0S"
0R"
b0 Q"
b0 P"
0O"
0N"
b0 M"
0L"
0K"
b0 J"
b0 I"
0H"
b0 G"
0F"
b0 E"
b0 D"
0C"
b0 B"
0A"
b0 @"
b0 ?"
b0 >"
b0 ="
0<"
bx ;"
bx :"
b0 9"
bx 8"
bx 7"
b0 6"
x5"
x4"
bx 3"
x2"
bx 1"
bx 0"
b0x /"
bx ."
bx -"
bx ,"
bx +"
bx *"
bx )"
x("
bx '"
x&"
x%"
x$"
bx #"
bx ""
x!"
bx ~
bx }
bx |
bx {
bx z
bx y
bx x
bx w
xv
xu
bx t
bx s
xr
xq
1p
1o
1n
1m
xl
xk
xj
xi
xh
bx g
xf
bx e
bx d
bx c
b0x0000xxxxxxxxxxxx0000xxxxxxxxxxxxxxxxxxxxxxxxxxxxxxxxxxx b
bx a
1`
x_
bx ^
b0 ]
b0 \
bx [
b0 Z
b0 Y
xX
0W
0V
xU
xT
xS
bx R
b0 Q
b0 P
0O
0N
0M
0L
bx K
bx J
xI
xH
bx G
bx F
bx E
bx D
bx C
bx B
xA
x@
x?
x>
bx =
bx <
x;
x:
x9
bx 8
x7
06
x5
x4
x3
x2
x1
x0
x/
bx .
1-
bz ,
x+
x*
z)
x(
b0 '
0&
b0 %
x$
x#
x"
0!
$end
#10
b0 *"
b0 R
0X
b0 [
b0 ^
b0 ."
b0 k"
b0 '#
b0 -"
b0 l"
b0 (#
b0 +"
b0 m"
b0 )#
b0 )"
b0 n"
b0 *#
0("
b0 '"
b0 o"
b0 +#
b0 ""
b0 p"
b0 ,#
b0 0"
b0 j"
b0 &#
0"
1U
b0 1"
b0 #"
b0 ,"
b0 b
b0 /"
b0 t
0v
b0 x
b0 |
b0 s
0u
b0 w
b0 {
b0 =
0+
0*
0$
0#
b0 c
b0 e
b0 d
0i
01
03
02
1k
1&"
0l
15"
14"
02"
0!"
1A
1T
0@
1?
1S
0>
0I
1(
0H
14
0f
0h
0;
b0 8
b0 s"
b0 /#
b0 <
b0 r"
b0 .#
1%"
1:
0/
0r
1$"
19
0q
b0 g
05
07
0_
b0xxxxxxxxxxxxxxxxxxxx a
0j
0a"
1`"
1<"
#13
b1 >"
#20
0<"
#30
b0 a
1<"
#33
b10 >"
#40
0<"
#50
1<"
#53
b11 >"
#60
0<"
#70
1<"
#73
b100 >"
#80
0<"
#90
1<"
#93
b101 >"
#100
0<"
1V"
#110
1<"
#113
b110 >"
#120
0<"
#130
1<"
#133
b111 >"
#140
0<"
#150
1<"
#153
b1000 >"
#160
0<"
#170
1<"
#173
b1001 >"
#180
0<"
#190
1<"
#193
b1010 >"
#200
0<"
#210
1<"
#213
b1011 >"
#220
0<"
#230
1<"
#233
b1100 >"
#240
0<"
#250
1<"
#253
b1101 >"
#260
0<"
#270
1<"
#273
b1110 >"
#280
0<"
#290
1<"
#293
b1111 >"
#300
0<"
#310
1<"
#313
b10000 >"
#320
0<"
#330
1<"
#333
b10001 >"
#340
0<"
#350
1<"
#353
b10010 >"
#360
0<"
#370
1<"
#373
b10011 >"
#380
0<"
#390
1<"
#393
b10100 >"
#400
0<"
#410
1<"
#413
b10101 >"
#420
0<"
#430
1<"
#433
b10110 >"
#440
0<"
#450
1<"
#453
b10111 >"
#460
0<"
#470
1<"
#473
b11000 >"
#480
0<"
#490
1<"
#493
b11001 >"
#500
0<"
#510
1<"
#513
b11010 >"
#520
0<"
#530
1<"
#533
b11011 >"
#540
0<"
#550
1<"
#553
b11100 >"
#560
0<"
#570
1<"
#573
b11101 >"
#580
0<"
#590
1<"
#593
b11110 >"
#600
0<"
#610
1<"
#613
b11111 >"
#620
0<"
#630
1<"
#633
b100000 >"
#640
0<"
#650
1<"
#653
b100001 >"
#660
0<"
#670
1<"
#673
b100010 >"
#680
0<"
#690
1<"
#693
b100011 >"
#700
0<"
#710
1<"
#713
b100100 >"
#720
0<"
#730
1<"
#733
b100101 >"
#740
0<"
#750
1<"
#753
b100110 >"
#760
0<"
#770
1<"
#773
b100111 >"
#780
0<"
#790
1<"
#793
b101000 >"
#800
0<"
#810
1<"
#813
b101001 >"
#820
0<"
#830
1<"
#833
b101010 >"
#840
0<"
#850
1<"
#853
b101011 >"
#860
0<"
#870
1<"
#873
b101100 >"
#880
0<"
#890
1<"
#893
b101101 >"
#900
0<"
#910
1<"
#913
b101110 >"
#920
0<"
#930
1<"
#933
b101111 >"
#940
0<"
#950
1<"
#953
b110000 >"
#960
0<"
#970
1<"
#973
b110001 >"
#980
0<"
#990
1<"
#993
b110010 >"
#1000
0<"
#1010
1<"
#1013
0`
1H"
b100 G"
b100 B"
1F"
1A"
b10100000000000000 E"
b1000000000000 @"
b1000000000000 ?"
b110011 >"
#1020
0<"
#1030
0n
1<"
#1033
1`
0H"
b0 G"
b0 B"
0F"
0A"
b0 E"
b0 @"
b0 ?"
b110100 >"
#1040
0<"
#1050
1n
1<"
#1053
b110101 >"
#1060
0<"
#1070
1<"
#1073
b110110 >"
#1080
0<"
#1090
b1111 *"
b10100000000000000 1"
b100 #"
b1 ,"
b10000000100001111000010000000000000000010100000000000000 b
b1 /"
1h
1!"
b1000000000000 g
1<"
#1093
1L"
b110111 >"
#1100
0<"
#1110
b0 *"
b1 ."
b1 k"
b1 '#
b1 +"
b1 m"
b1 )#
b1111 )"
b1111 n"
b1111 *#
b100 ""
b100 p"
b100 ,#
b10100000000000000 0"
b10100000000000000 j"
b10100000000000000 &#
b0 1"
b0 #"
b0 ,"
b0 b
b0 /"
b10000000100001111000010000000000000000010100000000000000 =
1*
0!"
0k
b1000000010000 g
1<"
#1113
b1 ="
b1111000011100000110100001100000010110000101000001001000010000000011100000110000001010000010000000011000000100000000100000000 M"
1N"
b111000 >"
#1120
0<"
#1130
b1111 *"
b10100000100000000 1"
b100 #"
b1 ,"
b10000000100001111000010000000000000000010100000100000000 b
b1 /"
0*
b0 ."
b0 k"
b0 '#
b0 -"
b0 l"
b0 (#
b0 +"
b0 m"
b0 )#
b0 )"
b0 n"
b0 *#
0("
b0 '"
b0 o"
b0 +#
b0 ""
b0 p"
b0 ,#
b0 0"
b0 j"
b0 &#
1k
b0 =
b10100000000000000 G
b10100000000000000 y"
1!"
b1000000100000 g
1<"
#1133
0`
b10 ="
b11111000111100001110100011100000110110001101000011001000110000001011100010110000101010001010000010011000100100001000100010000 M"
1H"
b100 G"
b100 B"
1F"
1A"
b100100000000000000 E"
b10000000000000 @"
b1000000000000 ?"
b111001 >"
#1140
0<"
#1150
b0 *"
b1 ."
b1 k"
b1 '#
b1 +"
b1 m"
b1 )#
b1111 )"
b1111 n"
b1111 *#
b100 ""
b100 p"
b100 ,#
b10100000100000000 0"
b10100000100000000 j"
b10100000100000000 &#
b0 1"
b0 #"
b0 ,"
b0 b
b0 /"
b10000000100001111000010000000000000000010100000100000000 =
1*
0!"
0k
0n
b1000000110000 g
1<"
#1153
1`
b11 ="
0H"
b0 G"
b0 B"
0F"
0A"
b0 E"
b0 @"
b0 ?"
b101111001011100010110100101100001010110010101000101001001010000010011100100110001001010010010000100011001000100010000100100000 M"
b111010 >"
#1160
0<"
#1170
b1111 *"
b10100001000000000 1"
b100 #"
b1 ,"
b10000000100001111000010000000000000000010100001000000000 b
b1 /"
0*
b0 ."
b0 k"
b0 '#
b0 -"
b0 l"
b0 (#
b0 +"
b0 m"
b0 )#
b0 )"
b0 n"
b0 *#
0("
b0 '"
b0 o"
b0 +#
b0 ""
b0 p"
b0 ,#
b0 0"
b0 j"
b0 &#
1k
b0 =
1!"
1n
b1000001000000 g
1<"
#1173
b100 ="
b111111001111100011110100111100001110110011101000111001001110000011011100110110001101010011010000110011001100100011000100110000 M"
b111011 >"
#1180
0<"
#1190
b0 *"
b1 ."
b1 k"
b1 '#
b1 +"
b1 m"
b1 )#
b1111 )"
b1111 n"
b1111 *#
b100 ""
b100 p"
b100 ,#
b10100001000000000 0"
b10100001000000000 j"
b10100001000000000 &#
b1111111111111111 8
b1111111111111111 s"
b1111111111111111 /#
b0 1"
b0 #"
b0 ,"
b0 b
b0 /"
b10000000100001111000010000000000000000010100001000000000 =
1*
b1111000011100000110100001100000010110000101000001001000010000000011100000110000001010000010000000011000000100000000100000000 <
b1111000011100000110100001100000010110000101000001001000010000000011100000110000001010000010000000011000000100000000100000000 r"
b1111000011100000110100001100000010110000101000001001000010000000011100000110000001010000010000000011000000100000000100000000 .#
0!"
0k
15
17
b1000001010000 g
1<"
#1193
b101 ="
b1001111010011100100110101001100010010110100101001001001010010000100011101000110010001010100010001000011010000100100000101000000 M"
b111100 >"
#1200
0<"
#1210
b1111 *"
b10100001100000000 1"
b100 #"
b1 ,"
b10000000100001111000010000000000000000010100001100000000 b
b1 /"
0*
b0 ."
b0 k"
b0 '#
b0 -"
b0 l"
b0 (#
b0 +"
b0 m"
b0 )#
b0 )"
b0 n"
b0 *#
0("
b0 '"
b0 o"
b0 +#
b0 ""
b0 p"
b0 ,#
b0 0"
b0 j"
b0 &#
1k
b0 =
1!"
b1111111111111111 C
b1111111111111111 w"
b1111000011100000110100001100000010110000101000001001000010000000011100000110000001010000010000000011000000100000000100000000 E
b1111000011100000110100001100000010110000101000001001000010000000011100000110000001010000010000000011000000100000000100000000 x"
1I
b11111000111100001110100011100000110110001101000011001000110000001011100010110000101010001010000010011000100100001000100010000 <
b11111000111100001110100011100000110110001101000011001000110000001011100010110000101010001010000010011000100100001000100010000 r"
b11111000111100001110100011100000110110001101000011001000110000001011100010110000101010001010000010011000100100001000100010000 .#
b1000001100000 g
1<"
#1213
b1000 ="
1]"
b1011111010111100101110101011100010110110101101001011001010110000101011101010110010101010101010001010011010100100101000101010000 M"
b111101 >"
#1220
0<"
#1230
b0 *"
b0 #"
b0 ,"
b0 /"
b1 ."
b1 k"
b1 '#
b1 +"
b1 m"
b1 )#
b1111 )"
b1111 n"
b1111 *#
b100 ""
b100 p"
b100 ,#
b10100001100000000 0"
b10100001100000000 j"
b10100001100000000 &#
b0 b
b0 1"
b10000000100001111000010000000000000000010100001100000000 =
1*
0!"
0k
b101111001011100010110100101100001010110010101000101001001010000010011100100110001001010010010000100011001000100010000100100000 <
b101111001011100010110100101100001010110010101000101001001010000010011100100110001001010010010000100011001000100010000100100000 r"
b101111001011100010110100101100001010110010101000101001001010000010011100100110001001010010010000100011001000100010000100100000 .#
b10100000000010000 G
b10100000000010000 y"
b11111000111100001110100011100000110110001101000011001000110000001011100010110000101010001010000010011000100100001000100010000 E
b11111000111100001110100011100000110110001101000011001000110000001011100010110000101010001010000010011000100100001000100010000 x"
b1000001110000 g
1<"
#1233
b1011 ="
b1101111011011100110110101101100011010110110101001101001011010000110011101100110011001010110010001100011011000100110000101100000 M"
b111110 >"
#1240
0<"
#1250
b1111 *"
b0 ."
b0 k"
b0 '#
b0 +"
b0 m"
b0 )#
b0 )"
b0 n"
b0 *#
b0 ""
b0 p"
b0 ,#
b10100010000000000 1"
b100 #"
b1 ,"
b10000000100001111000010000000000000000010100010000000000 b
b1 /"
0*
b0 0"
b0 j"
b0 &#
1k
b0 =
00
1!"
0(
b101111001011100010110100101100001010110010101000101001001010000010011100100110001001010010010000100011001000100010000100100000 E
b101111001011100010110100101100001010110010101000101001001010000010011100100110001001010010010000100011001000100010000100100000 x"
b10100000000100000 G
b10100000000100000 y"
b111111001111100011110100111100001110110011101000111001001110000011011100110110001101010011010000110011001100100011000100110000 <
b111111001111100011110100111100001110110011101000111001001110000011011100110110001101010011010000110011001100100011000100110000 r"
b111111001111100011110100111100001110110011101000111001001110000011011100110110001101010011010000110011001100100011000100110000 .#
0%"
b1000010000000 g
1<"
#1253
0`
b1110 ="
b1111111011111100111110101111100011110110111101001111001011110000111011101110110011101010111010001110011011100100111000101110000 M"
1H"
b100 G"
b100 B"
1F"
1A"
b110100000000000000 E"
b11000000000000 @"
b1000000000000 ?"
b111111 >"
#1260
0<"
#1270
b0 *"
b0 #"
b0 ,"
b0 /"
b1 ."
b1 k"
b1 '#
b1 +"
b1 m"
b1 )#
b1111 )"
b1111 n"
b1111 *#
b100 ""
b100 p"
b100 ,#
b10100010000000000 0"
b10100010000000000 j"
b10100010000000000 &#
b0 b
b0 1"
b10000000100001111000010000000000000000010100010000000000 =
1*
0!"
0k
0n
b1001111010011100100110101001100010010110100101001001001010010000100011101000110010001010100010001000011010000100100000101000000 <
b1001111010011100100110101001100010010110100101001001001010010000100011101000110010001010100010001000011010000100100000101000000 r"
b1001111010011100100110101001100010010110100101001001001010010000100011101000110010001010100010001000011010000100100000101000000 .#
b10100000000110000 G
b10100000000110000 y"
b111111001111100011110100111100001110110011101000111001001110000011011100110110001101010011010000110011001100100011000100110000 E
b111111001111100011110100111100001110110011101000111001001110000011011100110110001101010011010000110011001100100011000100110000 x"
b1000010010000 g
1<"
#1273
1`
b10001 ="
0H"
b0 G"
b0 B"
0F"
0A"
b0 E"
b0 @"
b0 ?"
b10001111100011101000110110001100100010111000101010001001100010001000011110000110100001011000010010000011100000101000000110000000 M"
b1000000 >"
#1280
0<"
#1290
b1111 *"
b10100010100000000 1"
b100 #"
b1 ,"
b10000000100001111000010000000000000000010100010100000000 b
b1 /"
1!"
1n
b1001111010011100100110101001100010010110100101001001001010010000100011101000110010001010100010001000011010000100100000101000000 E
b1001111010011100100110101001100010010110100101001001001010010000100011101000110010001010100010001000011010000100100000101000000 x"
b10100000001000000 G
b10100000001000000 y"
b1011111010111100101110101011100010110110101101001011001010110000101011101010110010101010101010001010011010100100101000101010000 <
b1011111010111100101110101011100010110110101101001011001010110000101011101010110010101010101010001010011010100100101000101010000 r"
b1011111010111100101110101011100010110110101101001011001010110000101011101010110010101010101010001010011010100100101000101010000 .#
b1000010100000 g
1<"
#1293
b10100 ="
b10011111100111101001110110011100100110111001101010011001100110001001011110010110100101011001010010010011100100101001000110010000 M"
b1000001 >"
#1300
0<"
#1310
b0 *"
b0 #"
b0 ,"
b0 /"
b0 b
b0 1"
0!"
b1101111011011100110110101101100011010110110101001101001011010000110011101100110011001010110010001100011011000100110000101100000 <
b1101111011011100110110101101100011010110110101001101001011010000110011101100110011001010110010001100011011000100110000101100000 r"
b1101111011011100110110101101100011010110110101001101001011010000110011101100110011001010110010001100011011000100110000101100000 .#
b10100000001010000 G
b10100000001010000 y"
b1011111010111100101110101011100010110110101101001011001010110000101011101010110010101010101010001010011010100100101000101010000 E
b1011111010111100101110101011100010110110101101001011001010110000101011101010110010101010101010001010011010100100101000101010000 x"
b1000010110000 g
1<"
#1313
b10111 ="
b10101111101011101010110110101100101010111010101010101001101010001010011110100110101001011010010010100011101000101010000110100000 M"
b1000010 >"
#1320
0<"
#1330
b1111 *"
b10100011000000000 1"
b100 #"
b1 ,"
b10000000100001111000010000000000000000010100011000000000 b
b1 /"
1!"
b1101111011011100110110101101100011010110110101001101001011010000110011101100110011001010110010001100011011000100110000101100000 E
b1101111011011100110110101101100011010110110101001101001011010000110011101100110011001010110010001100011011000100110000101100000 x"
b10100000001100000 G
b10100000001100000 y"
b1111111011111100111110101111100011110110111101001111001011110000111011101110110011101010111010001110011011100100111000101110000 <
b1111111011111100111110101111100011110110111101001111001011110000111011101110110011101010111010001110011011100100111000101110000 r"
b1111111011111100111110101111100011110110111101001111001011110000111011101110110011101010111010001110011011100100111000101110000 .#
b1000011000000 g
1<"
#1333
b11010 ="
b10111111101111101011110110111100101110111011101010111001101110001011011110110110101101011011010010110011101100101011000110110000 M"
b1000011 >"
#1340
0<"
#1350
b0 *"
b0 #"
b0 ,"
b0 /"
b0 b
b0 1"
0!"
b10001111100011101000110110001100100010111000101010001001100010001000011110000110100001011000010010000011100000101000000110000000 <
b10001111100011101000110110001100100010111000101010001001100010001000011110000110100001011000010010000011100000101000000110000000 r"
b10001111100011101000110110001100100010111000101010001001100010001000011110000110100001011000010010000011100000101000000110000000 .#
b10100000001110000 G
b10100000001110000 y"
b1111111011111100111110101111100011110110111101001111001011110000111011101110110011101010111010001110011011100100111000101110000 E
b1111111011111100111110101111100011110110111101001111001011110000111011101110110011101010111010001110011011100100111000101110000 x"
b1000011010000 g
1<"
#1353
b11101 ="
b11001111110011101100110111001100110010111100101011001001110010001100011111000110110001011100010011000011110000101100000111000000 M"
b1000100 >"
#1360
0<"
#1370
b10001111100011101000110110001100100010111000101010001001100010001000011110000110100001011000010010000011100000101000000110000000 E
b10001111100011101000110110001100100010111000101010001001100010001000011110000110100001011000010010000011100000101000000110000000 x"
b10100000010000000 G
b10100000010000000 y"
b10011111100111101001110110011100100110111001101010011001100110001001011110010110100101011001010010010011100100101001000110010000 <
b10011111100111101001110110011100100110111001101010011001100110001001011110010110100101011001010010010011100100101001000110010000 r"
b10011111100111101001110110011100100110111001101010011001100110001001011110010110100101011001010010010011100100101001000110010000 .#
b1000011100000 g
1<"
#1373
0`
b100000 ="
b11011111110111101101110111011100110110111101101011011001110110001101011111010110110101011101010011010011110100101101000111010000 M"
1H"
b100 G"
b100 B"
1F"
1A"
b1000100000000000000 E"
b100000000000000 @"
b1000000000000 ?"
b1000101 >"
#1380
0<"
#1390
0n
b10101111101011101010110110101100101010111010101010101001101010001010011110100110101001011010010010100011101000101010000110100000 <
b10101111101011101010110110101100101010111010101010101001101010001010011110100110101001011010010010100011101000101010000110100000 r"
b10101111101011101010110110101100101010111010101010101001101010001010011110100110101001011010010010100011101000101010000110100000 .#
b10100000010010000 G
b10100000010010000 y"
b10011111100111101001110110011100100110111001101010011001100110001001011110010110100101011001010010010011100100101001000110010000 E
b10011111100111101001110110011100100110111001101010011001100110001001011110010110100101011001010010010011100100101001000110010000 x"
b1000011110000 g
1<"
#1393
1`
b100011 ="
0H"
b0 G"
b0 B"
0F"
0A"
b0 E"
b0 @"
b0 ?"
b11101111111011101110110111101100111010111110101011101001111010001110011111100110111001011110010011100011111000101110000111100000 M"
b1000110 >"
#1400
0<"
#1410
b10101111101011101010110110101100101010111010101010101001101010001010011110100110101001011010010010100011101000101010000110100000 E
b10101111101011101010110110101100101010111010101010101001101010001010011110100110101001011010010010100011101000101010000110100000 x"
b10100000010100000 G
b10100000010100000 y"
b10111111101111101011110110111100101110111011101010111001101110001011011110110110101101011011010010110011101100101011000110110000 <
b10111111101111101011110110111100101110111011101010111001101110001011011110110110101101011011010010110011101100101011000110110000 r"
b10111111101111101011110110111100101110111011101010111001101110001011011110110110101101011011010010110011101100101011000110110000 .#
b1000100000000 g
1<"
#1413
b100110 ="
b11111111111111101111110111111100111110111111101011111001111110001111011111110110111101011111010011110011111100101111000111110000 M"
b1000111 >"
#1420
0<"
